Lipidomics analysis - R CUBED ADVANCED COURSE BABY
…
Phospholipids
2.7 (2.6)

TMS (interntal standard)
123 (130.4)

Building the model

Logistic Regression Model Specification (classification)

Computational engine: glm 

# A tibble: 504 × 6
   code   gender   age class metabolite                value
   <chr>  <chr>  <dbl> <chr> <chr>                     <dbl>
 1 ERI109 M         25 CT    tms_interntal_standard   208.  
 2 ERI109 M         25 CT    cholesterol               19.8 
 3 ERI109 M         25 CT    lipid_ch_3_1              44.1 
 4 ERI109 M         25 CT    lipid_ch_3_2             147.  
 5 ERI109 M         25 CT    cholesterol               27.2 
 6 ERI109 M         25 CT    lipid_ch_2               587.  
 7 ERI109 M         25 CT    fa_ch_2_ch_2_coo          31.6 
 8 ERI109 M         25 CT    pufa                      29.0 
 9 ERI109 M         25 CT    phosphatidylethanolamine   6.78
10 ERI109 M         25 CT    phosphatidycholine        41.7 
# ℹ 494 more rows

# A tibble: 36 × 16
   code   gender   age class metabolite_TMS (interntal …¹ metabolite_Cholesterol
   <chr>  <chr>  <dbl> <chr>                        <dbl>                  <dbl>
 1 ERI109 M         25 CT                           208.                   18.6 
 2 ERI111 M         39 CT                           219.                   20.8 
 3 ERI163 W         58 CT                            57.1                  15.5 
 4 ERI375 M         24 CT                            19.2                  10.2 
 5 ERI376 M         26 CT                            35.4                  13.5 
 6 ERI391 M         31 CT                            30.4                   9.53
 7 ERI392 M         24 CT                            21.7                   9.87
 8 ERI79  W         26 CT                           185.                   17.6 
 9 ERI81  M         52 CT                           207.                   17.0 
10 ERI83  M         25 CT                           322.                   19.7 
# ℹ 26 more rows
# ℹ abbreviated name: ¹​`metabolite_TMS (interntal standard)`
# ℹ 10 more variables: `metabolite_Lipid CH3- 1` <dbl>,
#   `metabolite_Lipid CH3- 2` <dbl>, `metabolite_Lipid -CH2-` <dbl>,
#   `metabolite_FA -CH2CH2COO-` <dbl>, metabolite_PUFA <dbl>,
#   metabolite_Phosphatidylethanolamine <dbl>,
#   metabolite_Phosphatidycholine <dbl>, metabolite_Phospholipids <dbl>, …
…
# A tibble: 4 × 5
  term                    estimate std.error statistic p.value
  <chr>                      <dbl>     <dbl>     <dbl>   <dbl>
1 (Intercept)                6.90     2.17       0.891 0.373  
2 genderW                    2.27     1.25       0.657 0.511  
3 age                        0.958    0.0558    -0.772 0.440  
4 metabolite_lipid_ch_3_1   44.5      1.41       2.70  0.00697

Running multiple models

[[1]]
# A tibble: 36 × 5
   code   gender   age class metabolite_cd_cl_3_solvent
   <chr>  <chr>  <dbl> <chr>                      <dbl>
 1 ERI109 M         25 CT                          166.
 2 ERI111 M         39 CT                          171.
 3 ERI163 W         58 CT                          262.
 4 ERI375 M         24 CT                          172.
 5 ERI376 M         26 CT                          300.
 6 ERI391 M         31 CT                          241.
 7 ERI392 M         24 CT                          172.
 8 ERI79  W         26 CT                          148.
 9 ERI81  M         52 CT                          168.
10 ERI83  M         25 CT                          253.
# ℹ 26 more rows

[[2]]
# A tibble: 36 × 5
   code   gender   age class metabolite_cholesterol
   <chr>  <chr>  <dbl> <chr>                  <dbl>
 1 ERI109 M         25 CT                     18.6 
 2 ERI111 M         39 CT                     20.8 
 3 ERI163 W         58 CT                     15.5 
 4 ERI375 M         24 CT                     10.2 
 5 ERI376 M         26 CT                     13.5 
 6 ERI391 M         31 CT                      9.53
 7 ERI392 M         24 CT                      9.87
 8 ERI79  W         26 CT                     17.6 
 9 ERI81  M         52 CT                     17.0 
10 ERI83  M         25 CT                     19.7 
# ℹ 26 more rows

[[3]]
# A tibble: 36 × 5
   code   gender   age class metabolite_fa_ch_2_ch_2_coo
   <chr>  <chr>  <dbl> <chr>                       <dbl>
 1 ERI109 M         25 CT                           31.6
 2 ERI111 M         39 CT                           28.9
 3 ERI163 W         58 CT                           36.6
 4 ERI375 M         24 CT                           39.4
 5 ERI376 M         26 CT                           52.1
 6 ERI391 M         31 CT                           42.8
 7 ERI392 M         24 CT                           39.9
 8 ERI79  W         26 CT                           32.7
 9 ERI81  M         52 CT                           28.4
10 ERI83  M         25 CT                           26.5
# ℹ 26 more rows

[[4]]
# A tibble: 36 × 5
   code   gender   age class metabolite_lipid_ch_2
   <chr>  <chr>  <dbl> <chr>                 <dbl>
 1 ERI109 M         25 CT                     587.
 2 ERI111 M         39 CT                     585.
 3 ERI163 W         58 CT                     558.
 4 ERI375 M         24 CT                     606.
 5 ERI376 M         26 CT                     554.
 6 ERI391 M         31 CT                     597.
 7 ERI392 M         24 CT                     607.
 8 ERI79  W         26 CT                     546.
 9 ERI81  M         52 CT                     593.
10 ERI83  M         25 CT                     606.
# ℹ 26 more rows

[[5]]
# A tibble: 36 × 5
   code   gender   age class metabolite_lipid_ch_3_1
   <chr>  <chr>  <dbl> <chr>                   <dbl>
 1 ERI109 M         25 CT                       44.1
 2 ERI111 M         39 CT                       28.1
 3 ERI163 W         58 CT                       75.1
 4 ERI375 M         24 CT                       22.0
 5 ERI376 M         26 CT                       29.5
 6 ERI391 M         31 CT                       38.0
 7 ERI392 M         24 CT                       34.8
 8 ERI79  W         26 CT                      109. 
 9 ERI81  M         52 CT                       49.6
10 ERI83  M         25 CT                       29.9
# ℹ 26 more rows

[[6]]
# A tibble: 36 × 5
   code   gender   age class metabolite_lipid_ch_3_2
   <chr>  <chr>  <dbl> <chr>                   <dbl>
 1 ERI109 M         25 CT                       147.
 2 ERI111 M         39 CT                       153.
 3 ERI163 W         58 CT                       144.
 4 ERI375 M         24 CT                       220.
 5 ERI376 M         26 CT                       282.
 6 ERI391 M         31 CT                       220.
 7 ERI392 M         24 CT                       215.
 8 ERI79  W         26 CT                       153.
 9 ERI81  M         52 CT                       150.
10 ERI83  M         25 CT                       153.
# ℹ 26 more rows

[[7]]
# A tibble: 36 × 5
   code   gender   age class metabolite_mufa_pufa
   <chr>  <chr>  <dbl> <chr>                <dbl>
 1 ERI109 M         25 CT                  50.6  
 2 ERI111 M         39 CT                  53.2  
 3 ERI163 W         58 CT                  60.7  
 4 ERI375 M         24 CT                   0.532
 5 ERI376 M         26 CT                   1.15 
 6 ERI391 M         31 CT                   0.602
 7 ERI392 M         24 CT                   0.422
 8 ERI79  W         26 CT                  36.3  
 9 ERI81  M         52 CT                  40.1  
10 ERI83  M         25 CT                  39.3  
# ℹ 26 more rows

[[8]]
# A tibble: 36 × 5
   code   gender   age class metabolite_phosphatidycholine
   <chr>  <chr>  <dbl> <chr>                         <dbl>
 1 ERI109 M         25 CT                             41.7
 2 ERI111 M         39 CT                             52.9
 3 ERI163 W         58 CT                             35.3
 4 ERI375 M         24 CT                             66.9
 5 ERI376 M         26 CT                             32.7
 6 ERI391 M         31 CT                             62.9
 7 ERI392 M         24 CT                             64.3
 8 ERI79  W         26 CT                             41.0
 9 ERI81  M         52 CT                             56.1
10 ERI83  M         25 CT                             57.8
# ℹ 26 more rows

[[9]]
# A tibble: 36 × 5
   code   gender   age class metabolite_phosphatidylethanolamine
   <chr>  <chr>  <dbl> <chr>                               <dbl>
 1 ERI109 M         25 CT                                   6.78
 2 ERI111 M         39 CT                                   3.66
 3 ERI163 W         58 CT                                   3.59
 4 ERI375 M         24 CT                                   3.59
 5 ERI376 M         26 CT                                   2.33
 6 ERI391 M         31 CT                                   1.46
 7 ERI392 M         24 CT                                   2.00
 8 ERI79  W         26 CT                                   4.93
 9 ERI81  M         52 CT                                   5.20
10 ERI83  M         25 CT                                   5.01
# ℹ 26 more rows

[[10]]
# A tibble: 36 × 5
   code   gender   age class metabolite_phospholipids
   <chr>  <chr>  <dbl> <chr>                    <dbl>
 1 ERI109 M         25 CT                        5.58
 2 ERI111 M         39 CT                        6.16
 3 ERI163 W         58 CT                        5.19
 4 ERI375 M         24 CT                        4.20
 5 ERI376 M         26 CT                        3.27
 6 ERI391 M         31 CT                        4.71
 7 ERI392 M         24 CT                        4.14
 8 ERI79  W         26 CT                        5.70
 9 ERI81  M         52 CT                        5.46
10 ERI83  M         25 CT                        4.89
# ℹ 26 more rows

[[11]]
# A tibble: 36 × 5
   code   gender   age class metabolite_pufa
   <chr>  <chr>  <dbl> <chr>           <dbl>
 1 ERI109 M         25 CT              29.0 
 2 ERI111 M         39 CT              27.4 
 3 ERI163 W         58 CT              35.5 
 4 ERI375 M         24 CT               6.92
 5 ERI376 M         26 CT               3.22
 6 ERI391 M         31 CT               3.43
 7 ERI392 M         24 CT               3.52
 8 ERI79  W         26 CT              18.7 
 9 ERI81  M         52 CT              20.7 
10 ERI83  M         25 CT              18.2 
# ℹ 26 more rows

[[12]]
# A tibble: 36 × 5
   code   gender   age class metabolite_tms_interntal_standard
   <chr>  <chr>  <dbl> <chr>                             <dbl>
 1 ERI109 M         25 CT                                208. 
 2 ERI111 M         39 CT                                219. 
 3 ERI163 W         58 CT                                 57.1
 4 ERI375 M         24 CT                                 19.2
 5 ERI376 M         26 CT                                 35.4
 6 ERI391 M         31 CT                                 30.4
 7 ERI392 M         24 CT                                 21.7
 8 ERI79  W         26 CT                                185. 
 9 ERI81  M         52 CT                                207. 
10 ERI83  M         25 CT                                322. 
# ℹ 26 more rows
…
